[
    {
        "extension": "html",
        "name" : "PMTemplates",
        "include_version": true,
        "minify" : true,
        "construct" : {
            "base_file" : "src/PMTemplates.html",
            "replace_pattern" : "///***CODE***///",
            "version_pattern" : "///***VERSION***///"
        },
        "target_path": "build/js/",
        "files": [
            "src/templates/template.html",
            "src/templates/controls.html"                                                    
        ]
    }
]
